<?xml version="1.0" encoding="utf-8"?>
<!-- Generator: Adobe Illustrator 19.0.0, SVG Export Plug-In . SVG Version: 6.00 Build 0)  -->
<svg version="1.1" id="Layer_1" xmlns="http://www.w3.org/2000/svg" xmlns:xlink="http://www.w3.org/1999/xlink" x="0px" y="0px"
	 viewBox="-398 189.6 163 182.4" style="enable-background:new -398 189.6 163 182.4;" xml:space="preserve">
<style type="text/css">
	.st0{fill:#AA4E0F;}
</style>
<polygon id="XMLID_28_" class="st0" points="-243,205.2 -243,289.1 -316.5,331.4 -390,289.1 -390,205.2 "/>
</svg>
