<?xml version="1.0" encoding="utf-8"?>
<!-- Generator: Adobe Illustrator 19.0.0, SVG Export Plug-In . SVG Version: 6.00 Build 0)  -->
<svg version="1.1" id="Layer_1" xmlns="http://www.w3.org/2000/svg" xmlns:xlink="http://www.w3.org/1999/xlink" x="0px" y="0px"
	 viewBox="0 0 284.3 82.5" style="enable-background:new 0 0 284.3 82.5;" xml:space="preserve">
<style type="text/css">
	.st0{fill:#FFFFFF;}
</style>
<g id="XMLID_1420_">
	<path id="XMLID_1425_" class="st0" d="M20.3,24.4c-0.1-1.7-0.1-3.3-0.1-4.9c-4.9-1-9.2-0.6-12,0c0.1,1.9,0.2,3.8,0.3,5.5
		C10.8,24.3,14.9,23.4,20.3,24.4z"/>
	<path id="XMLID_1424_" class="st0" d="M20.3,16.2c0.1-5.8,0.6-10.8,1-14c-4.6,0.1-9.1,0.9-13.4,2.3C7.9,8,8,12.1,8.2,16.1
		C10.7,15.5,15,14.9,20.3,16.2z"/>
	<path id="XMLID_1421_" class="st0" d="M37.4,29.8c-5.6-1.3-12.1,2.1-16.3,5c-0.3-2.2-0.5-4.5-0.6-6.8c-4.9-0.8-9.2-0.1-11.7,0.5
		C9,32,9.2,34.3,9.2,34.3c0.9,27.2-8.6,43.5-8.6,43.5l12.5,3.3c1-2.6,1.9-5.2,2.7-7.6c6.6,6.1,14.5,5.1,14.5,5.1
		c25.2-4,22.4-25,22.4-25C51,30.5,37.4,29.8,37.4,29.8z M35.4,63.2c0,0-4.6,3.7-10.2,3.4c0,0-3.5,0.4-3.7-4.5c0,0,0.2-8.9,2.9-12.3
		c1.7-2.1,8.1-11.2,14.1-4.1C38.4,45.7,44.7,55.9,35.4,63.2z"/>
</g>
<g id="XMLID_15_">
	<path id="XMLID_29_" class="st0" d="M80.5,31.1c3.5,0,6.8,0.6,9.7,1.7c2.9,1.1,5.4,2.7,7.5,4.8c2.1,2.1,3.7,4.6,4.9,7.5
		c1.2,3,1.7,6.3,1.7,10c0,3.7-0.6,7.1-1.7,10.1c-1.2,3-2.8,5.5-4.9,7.6c-2.1,2.1-4.6,3.7-7.5,4.8c-2.9,1.1-6.1,1.7-9.7,1.7
		c-3.6,0-6.8-0.6-9.7-1.7c-2.9-1.1-5.4-2.7-7.6-4.8c-2.1-2.1-3.8-4.6-4.9-7.6c-1.2-3-1.7-6.3-1.7-10.1c0-3.7,0.6-7,1.7-10
		c1.2-3,2.8-5.5,4.9-7.5c2.1-2.1,4.6-3.7,7.6-4.8C73.7,31.7,76.9,31.1,80.5,31.1z M80.5,68.9c3.2,0,5.6-1.1,7.1-3.4
		s2.3-5.7,2.3-10.3c0-4.6-0.8-8.1-2.3-10.3s-3.9-3.4-7.1-3.4c-3.3,0-5.7,1.1-7.2,3.4c-1.5,2.3-2.3,5.7-2.3,10.3
		c0,4.6,0.8,8.1,2.3,10.3C74.8,67.7,77.2,68.9,80.5,68.9z"/>
	<path id="XMLID_32_" class="st0" d="M174.6,31.8l-14.5,46.7h-11.3c-0.6,0-1.1-0.2-1.5-0.5c-0.4-0.4-0.8-1-1-1.8l-6.7-23.3
		c-0.3-1-0.6-2.1-0.9-3.1c-0.3-1-0.5-2.1-0.7-3.1c-0.2,1.1-0.4,2.1-0.7,3.1c-0.3,1.1-0.5,2.1-0.9,3.1l-6.8,23.2
		c-0.5,1.6-1.4,2.3-3,2.3h-10.8l-14.5-46.7h11.2c1,0,1.8,0.2,2.5,0.7c0.7,0.5,1.1,1,1.4,1.7l4.7,20.9c0.4,1.6,0.7,3.1,1,4.6
		c0.3,1.5,0.6,3,0.8,4.5c0.4-1.5,0.8-3,1.2-4.5c0.4-1.5,0.9-3,1.4-4.6l5.9-21c0.2-0.7,0.7-1.3,1.3-1.7c0.7-0.5,1.4-0.7,2.3-0.7h6.2
		c1,0,1.8,0.2,2.5,0.7c0.7,0.5,1.1,1,1.4,1.7l5.6,21c0.5,1.6,0.9,3.1,1.3,4.6c0.4,1.5,0.8,3,1.2,4.5c0.2-1.5,0.5-3,0.9-4.5
		c0.3-1.5,0.7-3.1,1.1-4.7l5-20.9c0.2-0.7,0.7-1.3,1.3-1.7c0.7-0.5,1.4-0.7,2.3-0.7H174.6z"/>
	<path id="XMLID_34_" class="st0" d="M189,11.1v67.4h-14V11.1H189z"/>
	<path id="XMLID_36_" class="st0" d="M205.4,57.7c0.5,3.9,1.6,6.7,3.6,8.5s4.4,2.6,7.4,2.6c1.6,0,3-0.2,4.2-0.6
		c1.2-0.4,2.2-0.8,3.1-1.3c0.9-0.5,1.8-0.9,2.5-1.3c0.8-0.4,1.6-0.6,2.4-0.6c1.1,0,2,0.4,2.5,1.2l4,5c-1.4,1.7-3,3-4.7,4
		c-1.7,1-3.4,1.8-5.1,2.4c-1.8,0.6-3.5,1-5.3,1.2s-3.4,0.3-5,0.3c-3.3,0-6.3-0.5-9.2-1.6c-2.9-1.1-5.4-2.6-7.5-4.7s-3.8-4.7-5.1-7.8
		c-1.2-3.1-1.9-6.8-1.9-10.9c0-3.1,0.5-6.1,1.6-8.9c1.1-2.8,2.6-5.2,4.6-7.3c2-2.1,4.4-3.8,7.2-5c2.8-1.2,6-1.8,9.6-1.8
		c3.1,0,5.9,0.5,8.5,1.4c2.6,1,4.8,2.4,6.6,4.2c1.8,1.8,3.3,4.1,4.3,6.7c1,2.7,1.6,5.7,1.6,9c0,1.1,0,1.9-0.1,2.6
		c-0.1,0.7-0.3,1.2-0.5,1.6s-0.6,0.7-1,0.8c-0.4,0.2-0.9,0.2-1.6,0.2H205.4z M223,49.6c0-1.1-0.1-2.2-0.4-3.2c-0.3-1-0.8-2-1.4-2.8
		c-0.6-0.8-1.5-1.5-2.5-2c-1-0.5-2.3-0.8-3.8-0.8c-2.6,0-4.7,0.8-6.2,2.3c-1.5,1.5-2.5,3.7-3,6.5H223z"/>
	<path id="XMLID_39_" class="st0" d="M249.4,57.7c0.5,3.9,1.6,6.7,3.6,8.5s4.4,2.6,7.4,2.6c1.6,0,3-0.2,4.2-0.6
		c1.2-0.4,2.2-0.8,3.1-1.3c0.9-0.5,1.8-0.9,2.5-1.3c0.8-0.4,1.6-0.6,2.4-0.6c1.1,0,2,0.4,2.5,1.2l4,5c-1.4,1.7-3,3-4.7,4
		c-1.7,1-3.4,1.8-5.1,2.4c-1.8,0.6-3.5,1-5.3,1.2s-3.4,0.3-5,0.3c-3.3,0-6.3-0.5-9.2-1.6c-2.9-1.1-5.4-2.6-7.5-4.7s-3.8-4.7-5.1-7.8
		c-1.2-3.1-1.9-6.8-1.9-10.9c0-3.1,0.5-6.1,1.6-8.9c1.1-2.8,2.6-5.2,4.6-7.3c2-2.1,4.4-3.8,7.2-5c2.8-1.2,6-1.8,9.6-1.8
		c3.1,0,5.9,0.5,8.5,1.4c2.6,1,4.8,2.4,6.6,4.2c1.8,1.8,3.3,4.1,4.3,6.7c1,2.7,1.6,5.7,1.6,9c0,1.1,0,1.9-0.1,2.6
		c-0.1,0.7-0.3,1.2-0.5,1.6s-0.6,0.7-1,0.8c-0.4,0.2-0.9,0.2-1.6,0.2H249.4z M267,49.6c0-1.1-0.1-2.2-0.4-3.2c-0.3-1-0.8-2-1.4-2.8
		c-0.6-0.8-1.5-1.5-2.5-2c-1-0.5-2.3-0.8-3.8-0.8c-2.6,0-4.7,0.8-6.2,2.3c-1.5,1.5-2.5,3.7-3,6.5H267z"/>
</g>
</svg>
